DATA*6200 Assignment 1
…
# checking the current working directory
getwd()

[1] "C:/Users/ASUS/Documents/Masters - Guelph/Fall 2024/6200/assignment 1"

# Reading the Excel data into a data frame named "workforce"
workforce <- readxl::read_xlsx("ask_a_manager.xlsx")

Warning: Coercing text to numeric in F26564 / R26564C6: '00'

# Display the first few rows of the data frame to undesrtand the data
workforce

# A tibble: 28,080 × 18
   Timestamp           `How old are you?` What industry do you wor…¹ `Job title`
   <dttm>              <chr>              <chr>                      <chr>      
 1 2021-04-27 11:02:09 25-34              Education (Higher Educati… Research a…
 2 2021-04-27 11:02:21 25-34              Computing or Tech          Change & I…
 3 2021-04-27 11:02:38 25-34              Accounting, Banking & Fin… Marketing …
 4 2021-04-27 11:02:40 25-34              Nonprofits                 Program Ma…
 5 2021-04-27 11:02:41 25-34              Accounting, Banking & Fin… Accounting…
 6 2021-04-27 11:02:45 25-34              Education (Higher Educati… Scholarly …
 7 2021-04-27 11:02:50 25-34              Publishing                 Publishing…
 8 2021-04-27 11:02:59 25-34              Education (Primary/Second… Librarian  
 9 2021-04-27 11:03:01 45-54              Computing or Tech          Systems An…
10 2021-04-27 11:03:01 35-44              Accounting, Banking & Fin… Senior Acc…
# ℹ 28,070 more rows
# ℹ abbreviated name: ¹​`What industry do you work in?`
# ℹ 14 more variables:
#   `If your job title needs additional context, please clarify here:` <chr>,
#   `What is your annual salary? (You'll indicate the currency in a later question. If you are part-time or hourly, please enter an annualized equivalent -- what you would earn if you worked the job 40 hours a week, 52 weeks a year.)` <dbl>,
#   `How much additional monetary compensation do you get, if any (for example, bonuses or overtime in an average year)? Please only include monetary compensation here, not the value of benefits.` <chr>,
#   `Please indicate the currency` <chr>, …
…
# Count the number of entries per industry
workforce %>% 
  count(industry)

# A tibble: 1,112 × 2
   industry                                   n
   <chr>                                  <int>
 1 "\"Government Relations\" (Lobbying)"      1
 2 "Academia"                                 5
 3 "Academia - STEM"                          1
 4 "Academia / Research"                      1
 5 "Academia--cell and molecular biology"     1
 6 "Academic Medicine"                        1
 7 "Academic Press Production"                1
 8 "Academic Publishing"                      2
 9 "Academic Science"                         1
10 "Academic Scientific Research"             1
# ℹ 1,102 more rows
…
workforce %>% 
  group_by(industry) %>% 
  count()

# A tibble: 354 × 2
# Groups:   industry [354]
   industry                                   n
   <chr>                                  <int>
 1 " marketing / business"                    1
 2 "Contractor"                               1
 3 "No job"                                   2
 4 "academia"                                 8
 5 "academic publishing/research/science"    19
 6 "academic research (psychology)"           1
 7 "academic research (social science)"       1
 8 "accessibility"                            2
 9 "accounting, banking & finance"         1771
10 "actuarial"                                1
# ℹ 344 more rows
…
